{
    "recipients": {
        "ARTLSS": {"name": "Arbin", "email": ["arbinbulai@domainname.com"]},
        "COLISS": {"name": "Arbin", "email": ["arbinbulai@domainname.com"]},
        "JOCNSS": {"name": "Arbin", "email": ["arbinbulai@domainname.com"]},
        "GLEPSS": {"name": "Arbin", "email": ["arbinbulai@domainname.com"]},
        "JINHSS": {"name": "Arbin", "email": ["arbinbulai@domainname.com"]},
        "POSCSS": {"name": "Arbin", "email": ["arbinbulai@domainname.com"]},
        "OPMISS": {"name": "Arbin", "email": ["arbinbulai@domainname.com"]},
        "NETNSS": {"name": "Arbin", "email": ["arbinbulai@domainname.com"]},
        "CPSYSS": {"name": "Arbin", "email": ["arbinbulai@domainname.com"]}
                }
}